ca_county_projections.utf8
…
Load conditional severity rates at county-level for CA counties

df <- read.csv('county_age_severity_rates_v6.csv', stringsAsFactors = FALSE)
df$County <- gsub('city', 'City', df$County)
df = df %>% filter(State == "California") %>% group_by(FIPS, County) %>%
    summarise(
      total_population = sum(population_in_age_group),
      wtd_prop_hosp_in_icu = weighted.mean(critical_case_rate/(critical_case_rate+severe_cases_rate), population_in_age_group))
df = df %>% mutate(County = gsub(' County', '', County))
df

## # A tibble: 58 x 4
## # Groups:   FIPS [58]
##     FIPS County       total_population wtd_prop_hosp_in_icu
##    <int> <chr>                   <int>                <dbl>
##  1  6001 Alameda               1643700                0.126
##  2  6003 Alpine                   1146                0.173
##  3  6005 Amador                  37829                0.186
##  4  6007 Butte                  227075                0.146
##  5  6009 Calaveras               45235                0.190
##  6  6011 Colusa                  21464                0.126
##  7  6013 Contra Costa          1133247                0.135
##  8  6015 Del Norte               27424                0.143
##  9  6017 El Dorado              186661                0.158
## 10  6019 Fresno                 978130                0.117
## #  with 48 more rows
…
